year;age;data;units
2014;1;71000;10^3
2014;2;113160;10^3
2014;3;28840;10^3
2014;4;8880;10^3
2015;1;203380;10^3
2015;2;165390;10^3
2015;3;21230;10^3
2015;4;0;10^3
2016;1;294950;10^3
2016;2;66940;10^3
2016;3;13090;10^3
2016;4;3020;10^3
2017;1;124450;10^3
2017;2;184630;10^3
2017;3;25810;10^3
2017;4;1670;10^3
2018;1;34620;10^3
2018;2;90250;10^3
2018;3;51050;10^3
2018;4;1060;10^3
