year;age;data;units
2014;1;71000;
2014;2;113160;
2014;3;28840;
2014;4;8880;
2015;1;203380;
2015;2;165390;
2015;3;21230;
2015;4;0.01;
2016;1;294950;
2016;2;66940;
2016;3;13090;
2016;4;3020;
2017;1;124450;
2017;2;184630;
2017;3;25810;
2017;4;1670;
2018;1;34620;
2018;2;90250;
2018;3;51050;
2018;4;1060;
2019;1;39737;
2019;2;94317;
2019;3;56549;
2019;4;12995;
