An object of class "FLQuant"
, , unit = unique, season = all, area = unique

   year
age 1994       1995       1996       1997       1998       1999       2000      
  0 1.7301e+10 1.7913e+10 4.9956e+10 6.0603e+10 9.3265e+10 1.9092e+11 1.5237e+11
  1 9.0880e+09 8.4152e+09 8.6859e+09 2.4303e+10 2.9360e+10 4.5087e+10 9.2908e+10
  2 3.3893e+09 3.2275e+09 2.1485e+09 1.9338e+09 7.3563e+09 9.6444e+09 1.3356e+10
  3 5.9650e+08 2.0756e+08 5.7894e+08 1.7092e+08 2.7155e+08 1.6524e+09 3.1401e+09
  4 6.2199e+06 1.5015e+07 2.5669e+07 3.3161e+07 2.9548e+07 7.9133e+06 6.0378e+08
  5 0.0000e+00 0.0000e+00 0.0000e+00 0.0000e+00 0.0000e+00 0.0000e+00 0.0000e+00
   year
age 2001       2002       2003       2004       2005       2006       2007      
  0 1.2672e+11 5.9852e+10 6.4137e+10 4.1865e+10 3.4941e+10 3.2806e+10 4.0355e+10
  1 7.3954e+10 6.1252e+10 2.8954e+10 3.0586e+10 2.0220e+10 1.6730e+10 1.5272e+10
  2 3.3722e+10 2.3466e+10 2.0839e+10 8.8548e+09 8.7305e+09 5.1785e+09 3.8123e+09
  3 3.8958e+09 9.9435e+09 6.0246e+09 5.7535e+09 2.2882e+09 1.3533e+09 9.8785e+08
  4 6.4972e+08 9.2628e+08 2.5432e+09 9.1543e+08 9.0207e+08 1.9930e+08 1.6334e+08
  5 0.0000e+00 0.0000e+00 0.0000e+00 0.0000e+00 0.0000e+00 0.0000e+00 0.0000e+00
   year
age 2008       2009       2010       2011       2012       2013       2014      
  0 3.0821e+10 3.2315e+10 4.7302e+10 5.3018e+10 9.5757e+10 7.5807e+10 7.3400e+10
  1 1.7637e+10 1.3938e+10 1.5086e+10 1.1855e+10 1.3772e+10 2.5680e+10 2.1073e+10
  2 3.9424e+09 3.7028e+09 2.2585e+09 2.5601e+09 1.8194e+09 3.6963e+09 8.7005e+09
  3 1.0972e+09 9.1531e+08 1.0246e+08 4.4794e+08 4.3597e+08 3.8227e+08 1.1022e+09
  4 1.2507e+08 1.8242e+07 6.5312e+06 3.9740e+06 7.0389e+07 2.5797e+07 1.5447e+08
  5 0.0000e+00 0.0000e+00 6.9966e+05 0.0000e+00 0.0000e+00 0.0000e+00 0.0000e+00
   year
age 2015       2016       2017       2018       2019       2020       2021      
  0 9.0526e+10 9.5725e+10 7.9135e+10 7.1373e+10 5.5117e+10 7.1483e+10 7.6948e+10
  1 2.0396e+10 2.5432e+10 2.6167e+10 2.1383e+10 2.0507e+10 1.4985e+10 2.2107e+10
  2 6.3736e+09 6.9514e+09 7.2118e+09 9.2839e+09 7.8921e+09 6.7890e+09 6.3117e+09
  3 3.7708e+09 1.6693e+09 1.7162e+09 2.3301e+09 3.0883e+09 1.9796e+09 1.9507e+09
  4 5.8323e+08 5.4030e+08 1.7493e+08 7.5715e+08 2.7683e+08 9.6665e+08 3.7807e+08
  5 7.5524e+07 2.5764e+07 0.0000e+00 7.7218e+07 1.1904e+08 2.7509e+08 4.1531e+08
   year
age 2022       2023      
  0 7.6948e+10 7.6948e+10
  1 2.2631e+10 2.2631e+10
  2 8.6675e+09 8.8730e+09
  3 2.3427e+09 3.2170e+09
  4 5.9191e+08 7.1084e+08
  5 3.7831e+08 4.6017e+08

units:  NA 
